<?xml version="1.0" encoding="UTF-8" standalone="no"?>
<!-- Created with Inkscape (http://www.inkscape.org/) -->

<svg
   xmlns:dc="http://purl.org/dc/elements/1.1/"
   xmlns:cc="http://creativecommons.org/ns#"
   xmlns:rdf="http://www.w3.org/1999/02/22-rdf-syntax-ns#"
   xmlns:svg="http://www.w3.org/2000/svg"
   xmlns="http://www.w3.org/2000/svg"
   xmlns:sodipodi="http://sodipodi.sourceforge.net/DTD/sodipodi-0.dtd"
   xmlns:inkscape="http://www.inkscape.org/namespaces/inkscape"
   width="210mm"
   height="297mm"
   viewBox="0 0 744.09448819 1052.3622047"
   id="svg4181"
   version="1.1"
   inkscape:version="0.91 r13725"
   sodipodi:docname="Discordian Tarot - Sweet - Two of Sweets.svg">
  <defs
     id="defs4183" />
  <sodipodi:namedview
     id="base"
     pagecolor="#ffffff"
     bordercolor="#666666"
     borderopacity="1.0"
     inkscape:pageopacity="0.0"
     inkscape:pageshadow="2"
     inkscape:zoom="0.7"
     inkscape:cx="186.1419"
     inkscape:cy="520"
     inkscape:document-units="px"
     inkscape:current-layer="layer1"
     showgrid="false"
     inkscape:window-width="1920"
     inkscape:window-height="1029"
     inkscape:window-x="0"
     inkscape:window-y="25"
     inkscape:window-maximized="1" />
  <metadata
     id="metadata4186">
    <rdf:RDF>
      <cc:Work
         rdf:about="">
        <dc:format>image/svg+xml</dc:format>
        <dc:type
           rdf:resource="http://purl.org/dc/dcmitype/StillImage" />
        <dc:title />
      </cc:Work>
    </rdf:RDF>
  </metadata>
  <g
     inkscape:label="Layer 1"
     inkscape:groupmode="layer"
     id="layer1">
    <g
       id="g4161"
       transform="matrix(0.54957202,0,0,0.52908487,-211.48098,-133.63591)">
      <path
         sodipodi:nodetypes="ccc"
         inkscape:connector-curvature="0"
         id="path12999"
         d="m 553.94871,446.71117 -0.0808,-0.0899 c 56.04996,130.48392 -60.90474,127.11938 0.0808,0.0899 z"
         style="fill:#000000;fill-opacity:1;fill-rule:evenodd;stroke:#000000;stroke-width:1px;stroke-linecap:butt;stroke-linejoin:miter;stroke-opacity:1" />
      <path
         sodipodi:nodetypes="ccc"
         inkscape:connector-curvature="0"
         id="path4157"
         d="m 510.81161,473.50735 c 163.4901,107.86855 45.08147,153.33856 -49.85095,65.08849 z"
         style="fill:none;fill-rule:evenodd;stroke:#000000;stroke-width:5;stroke-linecap:butt;stroke-linejoin:miter;stroke-miterlimit:4;stroke-dasharray:none;stroke-opacity:1" />
      <path
         sodipodi:nodetypes="cc"
         inkscape:connector-curvature="0"
         id="path4159"
         d="m 574.21995,569.42878 c -24.7685,-24.31291 -60.84829,-50.61241 -77.0586,-55.5266"
         style="fill:none;fill-rule:evenodd;stroke:#000000;stroke-width:1.19958043px;stroke-linecap:butt;stroke-linejoin:miter;stroke-opacity:1" />
    </g>
    <g
       id="g4161-9"
       transform="matrix(0.54957202,0,0,0.52908487,363.51902,-133.63591)">
      <path
         sodipodi:nodetypes="ccc"
         inkscape:connector-curvature="0"
         id="path12999-3"
         d="m 553.94871,446.71117 -0.0808,-0.0899 c 56.04996,130.48392 -60.90474,127.11938 0.0808,0.0899 z"
         style="fill:#000000;fill-opacity:1;fill-rule:evenodd;stroke:#000000;stroke-width:1px;stroke-linecap:butt;stroke-linejoin:miter;stroke-opacity:1" />
      <path
         sodipodi:nodetypes="ccc"
         inkscape:connector-curvature="0"
         id="path4157-6"
         d="m 510.81161,473.50735 c 163.4901,107.86855 45.08147,153.33856 -49.85095,65.08849 z"
         style="fill:none;fill-rule:evenodd;stroke:#000000;stroke-width:5;stroke-linecap:butt;stroke-linejoin:miter;stroke-miterlimit:4;stroke-dasharray:none;stroke-opacity:1" />
      <path
         sodipodi:nodetypes="cc"
         inkscape:connector-curvature="0"
         id="path4159-0"
         d="m 574.21995,569.42878 c -24.7685,-24.31291 -60.84829,-50.61241 -77.0586,-55.5266"
         style="fill:none;fill-rule:evenodd;stroke:#000000;stroke-width:1.19958043px;stroke-linecap:butt;stroke-linejoin:miter;stroke-opacity:1" />
    </g>
    <g
       id="g4161-5"
       transform="matrix(1.0891507,0,0,1.0665812,-198.38907,-124.57831)">
      <path
         sodipodi:nodetypes="ccc"
         inkscape:connector-curvature="0"
         id="path12999-0"
         d="m 553.94871,446.71117 -0.0808,-0.0899 c 56.04996,130.48392 -60.90474,127.11938 0.0808,0.0899 z"
         style="fill:#000000;fill-opacity:1;fill-rule:evenodd;stroke:#000000;stroke-width:1px;stroke-linecap:butt;stroke-linejoin:miter;stroke-opacity:1" />
      <path
         sodipodi:nodetypes="ccc"
         inkscape:connector-curvature="0"
         id="path4157-4"
         d="m 510.81161,473.50735 c 163.4901,107.86855 45.08147,153.33856 -49.85095,65.08849 z"
         style="fill:none;fill-rule:evenodd;stroke:#000000;stroke-width:5;stroke-linecap:butt;stroke-linejoin:miter;stroke-miterlimit:4;stroke-dasharray:none;stroke-opacity:1" />
      <path
         sodipodi:nodetypes="cc"
         inkscape:connector-curvature="0"
         id="path4159-8"
         d="m 574.21995,569.42878 c -24.7685,-24.31291 -60.84829,-50.61241 -77.0586,-55.5266"
         style="fill:none;fill-rule:evenodd;stroke:#000000;stroke-width:1.19958043px;stroke-linecap:butt;stroke-linejoin:miter;stroke-opacity:1" />
    </g>
    <g
       id="g4161-5-7"
       transform="matrix(1.0891507,0,0,1.0665812,-198.38907,75.421693)">
      <path
         sodipodi:nodetypes="ccc"
         inkscape:connector-curvature="0"
         id="path12999-0-1"
         d="m 553.94871,446.71117 -0.0808,-0.0899 c 56.04996,130.48392 -60.90474,127.11938 0.0808,0.0899 z"
         style="fill:#000000;fill-opacity:1;fill-rule:evenodd;stroke:#000000;stroke-width:1px;stroke-linecap:butt;stroke-linejoin:miter;stroke-opacity:1" />
      <path
         sodipodi:nodetypes="ccc"
         inkscape:connector-curvature="0"
         id="path4157-4-7"
         d="m 510.81161,473.50735 c 163.4901,107.86855 45.08147,153.33856 -49.85095,65.08849 z"
         style="fill:none;fill-rule:evenodd;stroke:#000000;stroke-width:5;stroke-linecap:butt;stroke-linejoin:miter;stroke-miterlimit:4;stroke-dasharray:none;stroke-opacity:1" />
      <path
         sodipodi:nodetypes="cc"
         inkscape:connector-curvature="0"
         id="path4159-8-2"
         d="m 574.21995,569.42878 c -24.7685,-24.31291 -60.84829,-50.61241 -77.0586,-55.5266"
         style="fill:none;fill-rule:evenodd;stroke:#000000;stroke-width:1.19958043px;stroke-linecap:butt;stroke-linejoin:miter;stroke-opacity:1" />
    </g>
    <path
       style="fill:none;fill-rule:evenodd;stroke:#000000;stroke-width:6.96406746;stroke-linecap:butt;stroke-linejoin:miter;stroke-miterlimit:4;stroke-dasharray:none;stroke-opacity:1"
       d="M 59.514217,28.587861 C 82.244947,8.9887359 102.18714,13.376903 102.95741,32.41538 98.428857,48.900126 72.625377,58.693309 58.135067,73.880159 l 42.753623,10e-6 -0.68958,-0.63792"
       id="path6841"
       inkscape:connector-curvature="0"
       sodipodi:nodetypes="ccccc" />
    <path
       style="fill:none;fill-rule:evenodd;stroke:#000000;stroke-width:6.96406746;stroke-linecap:butt;stroke-linejoin:miter;stroke-miterlimit:4;stroke-dasharray:none;stroke-opacity:1"
       d="m 644.51422,28.587861 c 22.73073,-19.5991251 42.67292,-15.210958 43.44319,3.827519 -4.52855,16.484746 -30.33203,26.277929 -44.82234,41.464779 l 42.75362,10e-6 -0.68958,-0.63792"
       id="path6841-7"
       inkscape:connector-curvature="0"
       sodipodi:nodetypes="ccccc" />
    <rect
       style="opacity:1;fill:none;fill-opacity:1;fill-rule:evenodd;stroke:#000000;stroke-width:15;stroke-linecap:round;stroke-linejoin:round;stroke-miterlimit:4;stroke-dasharray:none;stroke-opacity:1"
       id="rect4421"
       width="750"
       height="1055"
       x="-2.5"
       y="-0.13779527" />
  </g>
</svg>
