<?xml version="1.0" encoding="UTF-8" standalone="no"?>
<!-- Created with Inkscape (http://www.inkscape.org/) -->

<svg
   xmlns:dc="http://purl.org/dc/elements/1.1/"
   xmlns:cc="http://creativecommons.org/ns#"
   xmlns:rdf="http://www.w3.org/1999/02/22-rdf-syntax-ns#"
   xmlns:svg="http://www.w3.org/2000/svg"
   xmlns="http://www.w3.org/2000/svg"
   xmlns:sodipodi="http://sodipodi.sourceforge.net/DTD/sodipodi-0.dtd"
   xmlns:inkscape="http://www.inkscape.org/namespaces/inkscape"
   width="210mm"
   height="297mm"
   viewBox="0 0 744.09448819 1052.3622047"
   id="svg4181"
   version="1.1"
   inkscape:version="0.91 r13725"
   sodipodi:docname="Discordian Tarot - Sweet - Chaos.svg">
  <defs
     id="defs4183" />
  <sodipodi:namedview
     id="base"
     pagecolor="#ffffff"
     bordercolor="#666666"
     borderopacity="1.0"
     inkscape:pageopacity="0.0"
     inkscape:pageshadow="2"
     inkscape:zoom="0.7"
     inkscape:cx="64.617548"
     inkscape:cy="511.42858"
     inkscape:document-units="px"
     inkscape:current-layer="layer1"
     showgrid="false"
     inkscape:window-width="1920"
     inkscape:window-height="1029"
     inkscape:window-x="0"
     inkscape:window-y="25"
     inkscape:window-maximized="1" />
  <metadata
     id="metadata4186">
    <rdf:RDF>
      <cc:Work
         rdf:about="">
        <dc:format>image/svg+xml</dc:format>
        <dc:type
           rdf:resource="http://purl.org/dc/dcmitype/StillImage" />
        <dc:title />
      </cc:Work>
    </rdf:RDF>
  </metadata>
  <g
     inkscape:label="Layer 1"
     inkscape:groupmode="layer"
     id="layer1">
    <path
       style="fill:none;fill-rule:evenodd;stroke:#000000;stroke-width:15;stroke-linecap:butt;stroke-linejoin:miter;stroke-miterlimit:4;stroke-dasharray:none;stroke-opacity:1"
       d="m -28,902.8622 812.85714,-10e-6"
       id="path4136"
       inkscape:connector-curvature="0"
       sodipodi:nodetypes="cc" />
    <text
       xml:space="preserve"
       style="font-style:normal;font-weight:normal;font-size:178.99572754px;line-height:0%;font-family:Sans;letter-spacing:0px;word-spacing:0px;fill:#000000;fill-opacity:1;stroke:none;stroke-width:1px;stroke-linecap:butt;stroke-linejoin:miter;stroke-opacity:1"
       x="6.4699421"
       y="1357.0519"
       id="text4153"
       sodipodi:linespacing="0%"
       transform="scale(1.3226548,0.75605515)"><tspan
         sodipodi:role="line"
         id="tspan4155"
         x="6.4699421"
         y="1357.0519">Chaos</tspan></text>
    <path
       style="fill:none;fill-rule:evenodd;stroke:#000000;stroke-width:8.45368958;stroke-linecap:round;stroke-linejoin:miter;stroke-miterlimit:4;stroke-dasharray:none;stroke-opacity:1"
       d="M 95.740924,43.24505 C 92.818964,39.371786 92.222852,35.498512 76.757948,31.625247 66.474234,32.12246 56.748599,33.265305 55.66577,44.407033 67.453391,56.585815 86.412135,48.675855 95.037841,60.093773 92.311218,67.136421 90.381076,74.837265 76.757948,72.875519 69.258513,73.961065 61.759067,72.123597 54.259622,62.417761"
       id="path4318"
       inkscape:connector-curvature="0"
       sodipodi:nodetypes="cccccc" />
    <path
       style="fill:none;fill-rule:evenodd;stroke:#000000;stroke-width:8.45368958;stroke-linecap:round;stroke-linejoin:miter;stroke-miterlimit:4;stroke-dasharray:none;stroke-opacity:1"
       d="m 680.74512,43.226925 c -2.92196,-3.873264 -3.51807,-7.746537 -18.98297,-11.619802 -10.28372,0.497213 -20.00935,1.640058 -21.09218,12.781785 11.78762,12.178782 30.74636,4.268822 39.37207,15.68674 -2.72662,7.042648 -4.65677,14.743492 -18.27989,12.781746 -7.49944,1.085546 -14.99889,-0.751922 -22.49833,-10.457758"
       id="path4318-3"
       inkscape:connector-curvature="0"
       sodipodi:nodetypes="cccccc" />
    <path
       style="fill:none;fill-rule:evenodd;stroke:#000000;stroke-width:10.1320858;stroke-linecap:butt;stroke-linejoin:miter;stroke-miterlimit:4;stroke-dasharray:none;stroke-opacity:1"
       d="m 386.96978,343.49702 c -12.05753,-1.83259 -6.96389,-10.18686 -19.09311,-11.02564 -14.77142,3.88841 -16.85555,8.61208 -13.45147,17.28241 2.76114,8.27313 9.37026,8.77906 9.94453,17.338 6.86577,4.47604 10.70991,1.03188 14.5411,-2.44624 -0.19528,-2.92144 5.01688,-3.94717 2.44313,-6.08959 4.8825,-0.21763 7.19163,-2.18415 3.9009,-6.37599 0.75453,-2.74803 5.19434,-2.54855 1.71492,-8.68295 z"
       id="path4807"
       inkscape:connector-curvature="0"
       sodipodi:nodetypes="cccccccc" />
    <path
       style="fill:none;fill-rule:evenodd;stroke:#000000;stroke-width:10.1320858;stroke-linecap:butt;stroke-linejoin:miter;stroke-miterlimit:4;stroke-dasharray:none;stroke-opacity:1"
       d="m 467.51185,662.53659 c -0.69709,12.50151 -9.25244,8.03762 -8.97964,20.52349 5.09228,14.76617 9.85837,16.47576 17.95929,12.21637 7.77341,-3.56597 7.67217,-10.3738 15.91846,-11.72772 3.72471,-7.4259 0.0415,-11.05091 -3.6735,-14.65963 -2.81479,0.46138 -4.27588,-4.77993 -6.12248,-1.95461 -0.64813,-4.97635 -2.76138,-7.16301 -6.53065,-3.42059 -2.73171,-0.526 -2.93583,-5.08673 -8.57148,-0.97731 z"
       id="path4807-6"
       inkscape:connector-curvature="0"
       sodipodi:nodetypes="cccccccc" />
    <path
       style="fill:none;fill-rule:evenodd;stroke:#000000;stroke-width:10.1320858;stroke-linecap:butt;stroke-linejoin:miter;stroke-miterlimit:4;stroke-dasharray:none;stroke-opacity:1"
       d="m 277.81015,689.23193 c -4.20029,-11.75501 5.37743,-11.1551 0.29331,-22.49947 -10.38881,-11.4673 -15.42357,-11.08842 -21.2072,-3.87036 -5.75158,6.44801 -3.02309,12.65285 -10.06492,17.26452 -0.54256,8.33522 4.24022,10.1562 9.04582,11.94926 2.40396,-1.57344 5.77366,2.63847 6.37411,-0.70829 2.52122,4.30099 5.3067,5.44378 7.31616,0.46998 2.70999,-0.63358 4.66293,3.4675 8.24272,-2.60564 z"
       id="path4807-7"
       inkscape:connector-curvature="0"
       sodipodi:nodetypes="cccccccc" />
    <path
       style="fill:none;fill-rule:evenodd;stroke:#000000;stroke-width:10.1320858;stroke-linecap:butt;stroke-linejoin:miter;stroke-miterlimit:4;stroke-dasharray:none;stroke-opacity:1"
       d="m 534.94009,487.00159 c 9.14114,-8.28304 12.06905,1.10469 20.51726,-7.8757 6.63667,-14.10396 4.46776,-18.78717 -4.17696,-21.70804 -7.93455,-3.16933 -12.57427,1.69246 -19.31068,-3.37795 -7.75817,2.50223 -7.67627,7.74167 -7.56077,12.99284 2.2989,1.73126 -0.30048,6.48451 2.9533,5.84615 -2.98774,3.97315 -3.01466,7.05441 2.22593,7.17526 1.55719,2.36502 -1.45523,5.7216 5.35192,6.94744 z"
       id="path4807-5"
       inkscape:connector-curvature="0"
       sodipodi:nodetypes="cccccccc" />
    <path
       style="fill:none;fill-rule:evenodd;stroke:#000000;stroke-width:10.1320858;stroke-linecap:butt;stroke-linejoin:miter;stroke-miterlimit:4;stroke-dasharray:none;stroke-opacity:1"
       d="m 196.0637,473.6872 c 11.8544,2.9129 6.06657,10.77556 18.07729,12.70495 15.04666,-2.54125 17.52638,-7.05873 14.87629,-16.00258 -2.04357,-8.4902 -8.58394,-9.59023 -8.42466,-18.1679 -6.4568,-5.07795 -10.5804,-1.99375 -14.69399,1.12542 -0.0551,2.92777 -5.33479,3.47949 -2.95403,5.84576 -4.88225,-0.22354 -7.3505,1.52715 -4.43066,5.99957 -0.98643,2.66938 -5.39206,2.07027 -2.45024,8.49478 z"
       id="path4807-3"
       inkscape:connector-curvature="0"
       sodipodi:nodetypes="cccccccc" />
    <g
       id="g4161"
       transform="matrix(0.54957202,0,0,0.52908487,-211.48098,-133.63591)">
      <path
         sodipodi:nodetypes="ccc"
         inkscape:connector-curvature="0"
         id="path12999"
         d="m 553.94871,446.71117 -0.0808,-0.0899 c 56.04996,130.48392 -60.90474,127.11938 0.0808,0.0899 z"
         style="fill:#000000;fill-opacity:1;fill-rule:evenodd;stroke:#000000;stroke-width:1px;stroke-linecap:butt;stroke-linejoin:miter;stroke-opacity:1" />
      <path
         sodipodi:nodetypes="ccc"
         inkscape:connector-curvature="0"
         id="path4157"
         d="m 510.81161,473.50735 c 163.4901,107.86855 45.08147,153.33856 -49.85095,65.08849 z"
         style="fill:none;fill-rule:evenodd;stroke:#000000;stroke-width:5;stroke-linecap:butt;stroke-linejoin:miter;stroke-miterlimit:4;stroke-dasharray:none;stroke-opacity:1" />
      <path
         sodipodi:nodetypes="cc"
         inkscape:connector-curvature="0"
         id="path4159"
         d="m 574.21995,569.42878 c -24.7685,-24.31291 -60.84829,-50.61241 -77.0586,-55.5266"
         style="fill:none;fill-rule:evenodd;stroke:#000000;stroke-width:1.19958043px;stroke-linecap:butt;stroke-linejoin:miter;stroke-opacity:1" />
    </g>
    <g
       id="g4161-3"
       transform="matrix(0.54957202,0,0,0.52908487,368.51902,-133.63591)">
      <path
         sodipodi:nodetypes="ccc"
         inkscape:connector-curvature="0"
         id="path12999-6"
         d="m 553.94871,446.71117 -0.0808,-0.0899 c 56.04996,130.48392 -60.90474,127.11938 0.0808,0.0899 z"
         style="fill:#000000;fill-opacity:1;fill-rule:evenodd;stroke:#000000;stroke-width:1px;stroke-linecap:butt;stroke-linejoin:miter;stroke-opacity:1" />
      <path
         sodipodi:nodetypes="ccc"
         inkscape:connector-curvature="0"
         id="path4157-7"
         d="m 510.81161,473.50735 c 163.4901,107.86855 45.08147,153.33856 -49.85095,65.08849 z"
         style="fill:none;fill-rule:evenodd;stroke:#000000;stroke-width:5;stroke-linecap:butt;stroke-linejoin:miter;stroke-miterlimit:4;stroke-dasharray:none;stroke-opacity:1" />
      <path
         sodipodi:nodetypes="cc"
         inkscape:connector-curvature="0"
         id="path4159-5"
         d="m 574.21995,569.42878 c -24.7685,-24.31291 -60.84829,-50.61241 -77.0586,-55.5266"
         style="fill:none;fill-rule:evenodd;stroke:#000000;stroke-width:1.19958043px;stroke-linecap:butt;stroke-linejoin:miter;stroke-opacity:1" />
    </g>
    <rect
       style="opacity:1;fill:none;fill-opacity:1;fill-rule:evenodd;stroke:#000000;stroke-width:15;stroke-linecap:round;stroke-linejoin:round;stroke-miterlimit:4;stroke-dasharray:none;stroke-opacity:1"
       id="rect4421"
       width="750"
       height="1055"
       x="-2.5"
       y="-0.13779527" />
  </g>
</svg>
