<?xml version="1.0" encoding="UTF-8" standalone="no"?>
<!-- Created with Inkscape (http://www.inkscape.org/) -->

<svg
   xmlns:dc="http://purl.org/dc/elements/1.1/"
   xmlns:cc="http://creativecommons.org/ns#"
   xmlns:rdf="http://www.w3.org/1999/02/22-rdf-syntax-ns#"
   xmlns:svg="http://www.w3.org/2000/svg"
   xmlns="http://www.w3.org/2000/svg"
   xmlns:sodipodi="http://sodipodi.sourceforge.net/DTD/sodipodi-0.dtd"
   xmlns:inkscape="http://www.inkscape.org/namespaces/inkscape"
   width="210mm"
   height="297mm"
   viewBox="0 0 744.09448819 1052.3622047"
   id="svg4181"
   version="1.1"
   inkscape:version="0.91 r13725"
   sodipodi:docname="Discordian Tarot - Pungent - Zip of Pungents.svg">
  <defs
     id="defs4183" />
  <sodipodi:namedview
     id="base"
     pagecolor="#ffffff"
     bordercolor="#666666"
     borderopacity="1.0"
     inkscape:pageopacity="0.0"
     inkscape:pageshadow="2"
     inkscape:zoom="0.7"
     inkscape:cx="-103.5498"
     inkscape:cy="520"
     inkscape:document-units="px"
     inkscape:current-layer="layer1"
     showgrid="false"
     inkscape:window-width="1920"
     inkscape:window-height="1029"
     inkscape:window-x="0"
     inkscape:window-y="25"
     inkscape:window-maximized="1" />
  <metadata
     id="metadata4186">
    <rdf:RDF>
      <cc:Work
         rdf:about="">
        <dc:format>image/svg+xml</dc:format>
        <dc:type
           rdf:resource="http://purl.org/dc/dcmitype/StillImage" />
        <dc:title />
      </cc:Work>
    </rdf:RDF>
  </metadata>
  <g
     inkscape:label="Layer 1"
     inkscape:groupmode="layer"
     id="layer1">
    <path
       style="fill:none;fill-rule:evenodd;stroke:#000000;stroke-width:15;stroke-linecap:butt;stroke-linejoin:miter;stroke-miterlimit:4;stroke-dasharray:none;stroke-opacity:1"
       d="m 49.644197,24.568433 75.714283,-1.428572 -74.285712,50 74.285712,-2.857142"
       id="path4729"
       inkscape:connector-curvature="0"
       sodipodi:nodetypes="cccc" />
    <path
       style="fill:none;fill-rule:evenodd;stroke:#000000;stroke-width:15;stroke-linecap:butt;stroke-linejoin:miter;stroke-miterlimit:4;stroke-dasharray:none;stroke-opacity:1"
       d="m 624.6442,25.282433 75.71428,-1.428572 -74.28571,50 74.28571,-2.857142"
       id="path4729-3"
       inkscape:connector-curvature="0"
       sodipodi:nodetypes="cccc" />
    <g
       id="g4144"
       transform="matrix(0.8792961,0,0,0.84987066,-121.59254,-293.72118)">
      <path
         d="m 187.13141,525.95884 a 42.142857,43.57143 0 0 1 24.05916,-56.36292 42.142857,43.57143 0 0 1 54.52387,24.85382 42.142857,43.57143 0 0 1 -24.01872,56.38136 42.142857,43.57143 0 0 1 -54.54169,-24.812"
         sodipodi:open="true"
         sodipodi:end="2.7705182"
         sodipodi:start="2.7720017"
         sodipodi:ry="43.57143"
         sodipodi:rx="42.142857"
         sodipodi:cy="510.21936"
         sodipodi:cx="226.42857"
         sodipodi:type="arc"
         id="path12974"
         style="color:#000000;display:inline;overflow:visible;visibility:visible;fill:#000000;fill-opacity:1;fill-rule:evenodd;stroke:#000000;stroke-width:1px;stroke-linecap:butt;stroke-linejoin:miter;stroke-miterlimit:4;stroke-dasharray:none;stroke-dashoffset:0;stroke-opacity:1;marker:none;enable-background:accumulate" />
      <path
         d="m 203.67709,516.03433 a 12.142858,12.142858 0 0 1 6.9323,-15.7077 12.142858,12.142858 0 0 1 15.71027,6.92648 12.142858,12.142858 0 0 1 -6.92065,15.71283 12.142858,12.142858 0 0 1 -15.7154,-6.91482"
         sodipodi:open="true"
         sodipodi:end="2.7705182"
         sodipodi:start="2.7720017"
         sodipodi:ry="12.142858"
         sodipodi:rx="12.142858"
         sodipodi:cy="511.64792"
         sodipodi:cx="215"
         sodipodi:type="arc"
         id="path12976"
         style="color:#000000;display:inline;overflow:visible;visibility:visible;fill:#ffffff;fill-opacity:1;fill-rule:evenodd;stroke:#000000;stroke-width:1px;stroke-linecap:butt;stroke-linejoin:miter;stroke-miterlimit:4;stroke-dasharray:none;stroke-dashoffset:0;stroke-opacity:1;marker:none;enable-background:accumulate" />
      <path
         style="color:#000000;display:inline;overflow:visible;visibility:visible;fill:#ffffff;fill-opacity:1;fill-rule:evenodd;stroke:#000000;stroke-width:1px;stroke-linecap:butt;stroke-linejoin:miter;stroke-miterlimit:4;stroke-dasharray:none;stroke-dashoffset:0;stroke-opacity:1;marker:none;enable-background:accumulate"
         id="path12978"
         sodipodi:type="arc"
         sodipodi:cx="237.85715"
         sodipodi:cy="511.64792"
         sodipodi:rx="12.142858"
         sodipodi:ry="12.142858"
         sodipodi:start="2.7720017"
         sodipodi:end="2.7705182"
         sodipodi:open="true"
         d="m 226.53423,516.03433 a 12.142858,12.142858 0 0 1 6.9323,-15.7077 12.142858,12.142858 0 0 1 15.71027,6.92648 12.142858,12.142858 0 0 1 -6.92064,15.71283 12.142858,12.142858 0 0 1 -15.71541,-6.91482" />
    </g>
    <g
       id="g4144-7"
       transform="matrix(0.8792961,0,0,0.84987066,453.40746,-293.72118)">
      <path
         d="m 187.13141,525.95884 a 42.142857,43.57143 0 0 1 24.05916,-56.36292 42.142857,43.57143 0 0 1 54.52387,24.85382 42.142857,43.57143 0 0 1 -24.01872,56.38136 42.142857,43.57143 0 0 1 -54.54169,-24.812"
         sodipodi:open="true"
         sodipodi:end="2.7705182"
         sodipodi:start="2.7720017"
         sodipodi:ry="43.57143"
         sodipodi:rx="42.142857"
         sodipodi:cy="510.21936"
         sodipodi:cx="226.42857"
         sodipodi:type="arc"
         id="path12974-5"
         style="color:#000000;display:inline;overflow:visible;visibility:visible;fill:#000000;fill-opacity:1;fill-rule:evenodd;stroke:#000000;stroke-width:1px;stroke-linecap:butt;stroke-linejoin:miter;stroke-miterlimit:4;stroke-dasharray:none;stroke-dashoffset:0;stroke-opacity:1;marker:none;enable-background:accumulate" />
      <path
         d="m 203.67709,516.03433 a 12.142858,12.142858 0 0 1 6.9323,-15.7077 12.142858,12.142858 0 0 1 15.71027,6.92648 12.142858,12.142858 0 0 1 -6.92065,15.71283 12.142858,12.142858 0 0 1 -15.7154,-6.91482"
         sodipodi:open="true"
         sodipodi:end="2.7705182"
         sodipodi:start="2.7720017"
         sodipodi:ry="12.142858"
         sodipodi:rx="12.142858"
         sodipodi:cy="511.64792"
         sodipodi:cx="215"
         sodipodi:type="arc"
         id="path12976-3"
         style="color:#000000;display:inline;overflow:visible;visibility:visible;fill:#ffffff;fill-opacity:1;fill-rule:evenodd;stroke:#000000;stroke-width:1px;stroke-linecap:butt;stroke-linejoin:miter;stroke-miterlimit:4;stroke-dasharray:none;stroke-dashoffset:0;stroke-opacity:1;marker:none;enable-background:accumulate" />
      <path
         style="color:#000000;display:inline;overflow:visible;visibility:visible;fill:#ffffff;fill-opacity:1;fill-rule:evenodd;stroke:#000000;stroke-width:1px;stroke-linecap:butt;stroke-linejoin:miter;stroke-miterlimit:4;stroke-dasharray:none;stroke-dashoffset:0;stroke-opacity:1;marker:none;enable-background:accumulate"
         id="path12978-5"
         sodipodi:type="arc"
         sodipodi:cx="237.85715"
         sodipodi:cy="511.64792"
         sodipodi:rx="12.142858"
         sodipodi:ry="12.142858"
         sodipodi:start="2.7720017"
         sodipodi:end="2.7705182"
         sodipodi:open="true"
         d="m 226.53423,516.03433 a 12.142858,12.142858 0 0 1 6.9323,-15.7077 12.142858,12.142858 0 0 1 15.71027,6.92648 12.142858,12.142858 0 0 1 -6.92064,15.71283 12.142858,12.142858 0 0 1 -15.71541,-6.91482" />
    </g>
    <rect
       style="opacity:1;fill:none;fill-opacity:1;fill-rule:evenodd;stroke:#000000;stroke-width:15;stroke-linecap:round;stroke-linejoin:round;stroke-miterlimit:4;stroke-dasharray:none;stroke-opacity:1"
       id="rect4421"
       width="750"
       height="1055"
       x="-2.5"
       y="-0.13779527" />
  </g>
</svg>
