<?xml version="1.0" encoding="UTF-8" standalone="no"?>
<!-- Created with Inkscape (http://www.inkscape.org/) -->

<svg
   xmlns:dc="http://purl.org/dc/elements/1.1/"
   xmlns:cc="http://creativecommons.org/ns#"
   xmlns:rdf="http://www.w3.org/1999/02/22-rdf-syntax-ns#"
   xmlns:svg="http://www.w3.org/2000/svg"
   xmlns="http://www.w3.org/2000/svg"
   xmlns:sodipodi="http://sodipodi.sourceforge.net/DTD/sodipodi-0.dtd"
   xmlns:inkscape="http://www.inkscape.org/namespaces/inkscape"
   width="210mm"
   height="297mm"
   viewBox="0 0 744.09448819 1052.3622047"
   id="svg12410"
   version="1.1"
   inkscape:version="0.91 r13725"
   sodipodi:docname="Suits.svg">
  <defs
     id="defs12412" />
  <sodipodi:namedview
     id="base"
     pagecolor="#ffffff"
     bordercolor="#666666"
     borderopacity="1.0"
     inkscape:pageopacity="0.0"
     inkscape:pageshadow="2"
     inkscape:zoom="1.4"
     inkscape:cx="315.76092"
     inkscape:cy="531.42857"
     inkscape:document-units="px"
     inkscape:current-layer="layer1"
     showgrid="false"
     inkscape:window-width="1920"
     inkscape:window-height="1029"
     inkscape:window-x="0"
     inkscape:window-y="25"
     inkscape:window-maximized="1" />
  <metadata
     id="metadata12415">
    <rdf:RDF>
      <cc:Work
         rdf:about="">
        <dc:format>image/svg+xml</dc:format>
        <dc:type
           rdf:resource="http://purl.org/dc/dcmitype/StillImage" />
        <dc:title />
      </cc:Work>
    </rdf:RDF>
  </metadata>
  <g
     inkscape:label="Layer 1"
     inkscape:groupmode="layer"
     id="layer1">
    <path
       style="fill:none;fill-rule:evenodd;stroke:#000000;stroke-width:4.11752844;stroke-linecap:butt;stroke-linejoin:miter;stroke-miterlimit:4;stroke-dasharray:none;stroke-opacity:1"
       d="m 103.88965,537.6145 c 14.68201,95.79781 58.71853,95.97379 71.11787,2e-5 -17.74768,42.5072 -52.11235,43.41645 -71.11787,-2e-5 z"
       id="path12958"
       inkscape:connector-curvature="0"
       sodipodi:nodetypes="ccc" />
    <g
       id="g4149"
       transform="matrix(0.49493693,0,0,1.231439,230.33419,309.32658)">
      <path
         sodipodi:nodetypes="ccc"
         inkscape:connector-curvature="0"
         id="path12960"
         d="M 185.71429,238.07649 310,239.50506 c -34.69752,-7.21409 -74.39192,-9.4114 -124.28571,-1.42857 z"
         style="fill:none;fill-rule:evenodd;stroke:#000000;stroke-width:5;stroke-linecap:butt;stroke-linejoin:miter;stroke-miterlimit:4;stroke-dasharray:none;stroke-opacity:1" />
      <path
         inkscape:connector-curvature="0"
         id="path12962"
         d="m 305.71428,239.50506 12.85715,-41.42857"
         style="fill:none;fill-rule:evenodd;stroke:#000000;stroke-width:5;stroke-linecap:butt;stroke-linejoin:miter;stroke-miterlimit:4;stroke-dasharray:none;stroke-opacity:1" />
      <path
         inkscape:connector-curvature="0"
         id="path12964"
         d="M 188.52967,236.6412 174.32748,195.22607"
         style="fill:none;fill-rule:evenodd;stroke:#000000;stroke-width:5;stroke-linecap:butt;stroke-linejoin:miter;stroke-miterlimit:4;stroke-dasharray:none;stroke-opacity:1" />
      <path
         inkscape:connector-curvature="0"
         id="path12966"
         d="m 250.00446,230.93907 1.41965,-50.01087"
         style="fill:none;fill-rule:evenodd;stroke:#000000;stroke-width:5;stroke-linecap:butt;stroke-linejoin:miter;stroke-miterlimit:4;stroke-dasharray:none;stroke-opacity:1" />
      <path
         inkscape:connector-curvature="0"
         id="path12970"
         d="m 278.77592,232.32705 8.16246,-48.50113"
         style="fill:none;fill-rule:evenodd;stroke:#000000;stroke-width:5;stroke-linecap:butt;stroke-linejoin:miter;stroke-miterlimit:4;stroke-dasharray:none;stroke-opacity:1" />
      <path
         inkscape:connector-curvature="0"
         id="path12972"
         d="M 221.041,233.7223 210.38756,183.85924"
         style="fill:none;fill-rule:evenodd;stroke:#000000;stroke-width:5;stroke-linecap:butt;stroke-linejoin:miter;stroke-miterlimit:4;stroke-dasharray:none;stroke-opacity:1" />
    </g>
    <g
       id="g4144"
       transform="matrix(0.8792961,0,0,0.84987066,42.177123,140.35463)">
      <path
         d="m 187.13141,525.95884 a 42.142857,43.57143 0 0 1 24.05916,-56.36292 42.142857,43.57143 0 0 1 54.52387,24.85382 42.142857,43.57143 0 0 1 -24.01872,56.38136 42.142857,43.57143 0 0 1 -54.54169,-24.812"
         sodipodi:open="true"
         sodipodi:end="2.7705182"
         sodipodi:start="2.7720017"
         sodipodi:ry="43.57143"
         sodipodi:rx="42.142857"
         sodipodi:cy="510.21936"
         sodipodi:cx="226.42857"
         sodipodi:type="arc"
         id="path12974"
         style="color:#000000;display:inline;overflow:visible;visibility:visible;fill:#000000;fill-opacity:1;fill-rule:evenodd;stroke:#000000;stroke-width:1px;stroke-linecap:butt;stroke-linejoin:miter;stroke-miterlimit:4;stroke-dasharray:none;stroke-dashoffset:0;stroke-opacity:1;marker:none;enable-background:accumulate" />
      <path
         d="m 203.67709,516.03433 a 12.142858,12.142858 0 0 1 6.9323,-15.7077 12.142858,12.142858 0 0 1 15.71027,6.92648 12.142858,12.142858 0 0 1 -6.92065,15.71283 12.142858,12.142858 0 0 1 -15.7154,-6.91482"
         sodipodi:open="true"
         sodipodi:end="2.7705182"
         sodipodi:start="2.7720017"
         sodipodi:ry="12.142858"
         sodipodi:rx="12.142858"
         sodipodi:cy="511.64792"
         sodipodi:cx="215"
         sodipodi:type="arc"
         id="path12976"
         style="color:#000000;display:inline;overflow:visible;visibility:visible;fill:#ffffff;fill-opacity:1;fill-rule:evenodd;stroke:#000000;stroke-width:1px;stroke-linecap:butt;stroke-linejoin:miter;stroke-miterlimit:4;stroke-dasharray:none;stroke-dashoffset:0;stroke-opacity:1;marker:none;enable-background:accumulate" />
      <path
         style="color:#000000;display:inline;overflow:visible;visibility:visible;fill:#ffffff;fill-opacity:1;fill-rule:evenodd;stroke:#000000;stroke-width:1px;stroke-linecap:butt;stroke-linejoin:miter;stroke-miterlimit:4;stroke-dasharray:none;stroke-dashoffset:0;stroke-opacity:1;marker:none;enable-background:accumulate"
         id="path12978"
         sodipodi:type="arc"
         sodipodi:cx="237.85715"
         sodipodi:cy="511.64792"
         sodipodi:rx="12.142858"
         sodipodi:ry="12.142858"
         sodipodi:start="2.7720017"
         sodipodi:end="2.7705182"
         sodipodi:open="true"
         d="m 226.53423,516.03433 a 12.142858,12.142858 0 0 1 6.9323,-15.7077 12.142858,12.142858 0 0 1 15.71027,6.92648 12.142858,12.142858 0 0 1 -6.92064,15.71283 12.142858,12.142858 0 0 1 -15.71541,-6.91482" />
    </g>
    <g
       id="g4161"
       transform="matrix(0.54957202,0,0,0.52908487,170.3175,306.75754)">
      <path
         sodipodi:nodetypes="ccc"
         inkscape:connector-curvature="0"
         id="path12999"
         d="m 553.94871,446.71117 -0.0808,-0.0899 c 56.04996,130.48392 -60.90474,127.11938 0.0808,0.0899 z"
         style="fill:#000000;fill-opacity:1;fill-rule:evenodd;stroke:#000000;stroke-width:1px;stroke-linecap:butt;stroke-linejoin:miter;stroke-opacity:1" />
      <path
         sodipodi:nodetypes="ccc"
         inkscape:connector-curvature="0"
         id="path4157"
         d="m 510.81161,473.50735 c 163.4901,107.86855 45.08147,153.33856 -49.85095,65.08849 z"
         style="fill:none;fill-rule:evenodd;stroke:#000000;stroke-width:5;stroke-linecap:butt;stroke-linejoin:miter;stroke-miterlimit:4;stroke-dasharray:none;stroke-opacity:1" />
      <path
         sodipodi:nodetypes="cc"
         inkscape:connector-curvature="0"
         id="path4159"
         d="m 574.21995,569.42878 c -24.7685,-24.31291 -60.84829,-50.61241 -77.0586,-55.5266"
         style="fill:none;fill-rule:evenodd;stroke:#000000;stroke-width:1.19958043px;stroke-linecap:butt;stroke-linejoin:miter;stroke-opacity:1" />
    </g>
    <g
       id="g4175"
       transform="translate(255,371.42857)">
      <g
         id="g4172">
        <path
           style="fill:none;fill-rule:evenodd;stroke:#000000;stroke-width:3.80396867;stroke-linecap:butt;stroke-linejoin:miter;stroke-miterlimit:4;stroke-dasharray:none;stroke-opacity:1"
           d="m 342.0942,248.3018 c -2.75398,4.01167 -7.44398,5.56981 -13.14615,5.28834 -9.02958,-0.44574 -20.59725,-5.5045 -31.03441,-12.73849 -8.34632,-5.78485 -15.96971,-12.96073 -20.99413,-20.28102 -3.66668,-5.34214 -5.94921,-10.76118 -6.11851,-15.77262 -0.2262,-6.6965 3.32088,-12.6652 12.38088,-16.75015 5.06182,-2.28228 11.84449,-3.97654 20.65138,-4.88119 9.99731,-1.02693 32.70455,-0.27876 37.25079,6.58003 -8.05891,17.41946 -6.13407,37.33486 1.01015,58.5551 z"
           id="path4166"
           inkscape:connector-curvature="0"
           sodipodi:nodetypes="csssssscc" />
      </g>
      <path
         sodipodi:nodetypes="cc"
         inkscape:connector-curvature="0"
         id="path4168"
         d="m 327.18044,219.78814 c -20.19055,-16.73382 -9.38765,-15.5001 6.62835,-12.1183"
         style="fill:none;fill-rule:evenodd;stroke:#000000;stroke-width:3.80396867;stroke-linecap:butt;stroke-linejoin:miter;stroke-miterlimit:4;stroke-dasharray:none;stroke-opacity:1" />
      <path
         style="fill:none;fill-rule:evenodd;stroke:#000000;stroke-width:3.04258323;stroke-linecap:butt;stroke-linejoin:miter;stroke-miterlimit:4;stroke-dasharray:none;stroke-opacity:1"
         d="m 340.5493,239.64295 c -10.2936,-3.96028 -30.67817,-5.90717 -36.65244,-13.54997 -18.04515,-23.0849 -23.73912,-45.90241 33.08101,-29.04698"
         id="path4170"
         inkscape:connector-curvature="0"
         sodipodi:nodetypes="csc" />
    </g>
  </g>
</svg>
